<?xml version="1.0" encoding="utf-8"?>
<!-- Generator: Adobe Illustrator 23.0.1, SVG Export Plug-In . SVG Version: 6.00 Build 0)  -->
<svg version="1.1" id="Layer_1" xmlns="http://www.w3.org/2000/svg" xmlns:xlink="http://www.w3.org/1999/xlink" x="0px" y="0px"
	 viewBox="0 0 36 24" style="enable-background:new 0 0 36 24;" xml:space="preserve">
<g>
	<g>
		<path d="M32,24h-8.5c-2.21,0-4-1.79-4-4v-3c0-2.21,1.79-4,4-4H32c2.21,0,4,1.79,4,4v3C36,22.21,34.21,24,32,24z"/>
	</g>
</g>
<g>
	<g>
		<path d="M32,11h-8.5c-2.21,0-4-1.79-4-4V4c0-2.21,1.79-4,4-4H32c2.21,0,4,1.79,4,4v3C36,9.21,34.21,11,32,11z"/>
	</g>
</g>
<g>
	<g>
		<path d="M12.5,11H4c-2.21,0-4-1.79-4-4V4c0-2.21,1.79-4,4-4h8.5c2.21,0,4,1.79,4,4v3C16.5,9.21,14.71,11,12.5,11z"/>
	</g>
</g>
<g>
	<g>
		<path d="M12.5,24H4c-2.21,0-4-1.79-4-4v-3c0-2.21,1.79-4,4-4h8.5c2.21,0,4,1.79,4,4v3C16.5,22.21,14.71,24,12.5,24z"/>
	</g>
</g>
</svg>
