<?xml version="1.0" encoding="utf-8"?>
<!-- Generator: Adobe Illustrator 23.0.1, SVG Export Plug-In . SVG Version: 6.00 Build 0)  -->
<svg version="1.1" id="Layer_1" xmlns="http://www.w3.org/2000/svg" xmlns:xlink="http://www.w3.org/1999/xlink" x="0px" y="0px"
	 viewBox="0 0 36 24" style="enable-background:new 0 0 36 24;" xml:space="preserve">
<g>
	<path d="M33.5,23H31c-1.38,0-2.5-1.12-2.5-2.5l0,0c0-1.38,1.12-2.5,2.5-2.5h2.5c1.38,0,2.5,1.12,2.5,2.5l0,0
		C36,21.88,34.88,23,33.5,23z"/>
</g>
<g>
	<path d="M24,23h-2.5c-1.38,0-2.5-1.12-2.5-2.5l0,0c0-1.38,1.12-2.5,2.5-2.5H24c1.38,0,2.5,1.12,2.5,2.5l0,0
		C26.5,21.88,25.38,23,24,23z"/>
</g>
<g>
	<path d="M5,23H2.5C1.12,23,0,21.88,0,20.5l0,0C0,19.12,1.12,18,2.5,18H5c1.38,0,2.5,1.12,2.5,2.5l0,0C7.5,21.88,6.38,23,5,23z"/>
</g>
<g>
	<path d="M14.5,23H12c-1.38,0-2.5-1.12-2.5-2.5l0,0c0-1.38,1.12-2.5,2.5-2.5h2.5c1.38,0,2.5,1.12,2.5,2.5l0,0
		C17,21.88,15.88,23,14.5,23z"/>
</g>
<g>
	<path d="M33.5,5H31c-1.38,0-2.5-1.12-2.5-2.5l0,0C28.5,1.12,29.62,0,31,0h2.5C34.88,0,36,1.12,36,2.5l0,0C36,3.88,34.88,5,33.5,5z"
		/>
</g>
<g>
	<path d="M24,5h-2.5C20.12,5,19,3.88,19,2.5l0,0C19,1.12,20.12,0,21.5,0H24c1.38,0,2.5,1.12,2.5,2.5l0,0C26.5,3.88,25.38,5,24,5z"/>
</g>
<g>
	<path d="M5,5H2.5C1.12,5,0,3.88,0,2.5l0,0C0,1.12,1.12,0,2.5,0H5c1.38,0,2.5,1.12,2.5,2.5l0,0C7.5,3.88,6.38,5,5,5z"/>
</g>
<g>
	<path d="M14.5,5H12c-1.38,0-2.5-1.12-2.5-2.5l0,0C9.5,1.12,10.62,0,12,0h2.5C15.88,0,17,1.12,17,2.5l0,0C17,3.88,15.88,5,14.5,5z"
		/>
</g>
<g>
	<path d="M33.5,11H31c-1.38,0-2.5-1.12-2.5-2.5l0,0C28.5,7.12,29.62,6,31,6h2.5C34.88,6,36,7.12,36,8.5l0,0
		C36,9.88,34.88,11,33.5,11z"/>
</g>
<g>
	<path d="M24,11h-2.5C20.12,11,19,9.88,19,8.5l0,0C19,7.12,20.12,6,21.5,6H24c1.38,0,2.5,1.12,2.5,2.5l0,0C26.5,9.88,25.38,11,24,11
		z"/>
</g>
<g>
	<path d="M5,11H2.5C1.12,11,0,9.88,0,8.5l0,0C0,7.12,1.12,6,2.5,6H5c1.38,0,2.5,1.12,2.5,2.5l0,0C7.5,9.88,6.38,11,5,11z"/>
</g>
<g>
	<path d="M14.5,11H12c-1.38,0-2.5-1.12-2.5-2.5l0,0C9.5,7.12,10.62,6,12,6h2.5C15.88,6,17,7.12,17,8.5l0,0C17,9.88,15.88,11,14.5,11
		z"/>
</g>
<g>
	<path d="M33.5,17H31c-1.38,0-2.5-1.12-2.5-2.5l0,0c0-1.38,1.12-2.5,2.5-2.5h2.5c1.38,0,2.5,1.12,2.5,2.5l0,0
		C36,15.88,34.88,17,33.5,17z"/>
</g>
<g>
	<path d="M24,17h-2.5c-1.38,0-2.5-1.12-2.5-2.5l0,0c0-1.38,1.12-2.5,2.5-2.5H24c1.38,0,2.5,1.12,2.5,2.5l0,0
		C26.5,15.88,25.38,17,24,17z"/>
</g>
<g>
	<path d="M5,17H2.5C1.12,17,0,15.88,0,14.5l0,0C0,13.12,1.12,12,2.5,12H5c1.38,0,2.5,1.12,2.5,2.5l0,0C7.5,15.88,6.38,17,5,17z"/>
</g>
<g>
	<path d="M14.5,17H12c-1.38,0-2.5-1.12-2.5-2.5l0,0c0-1.38,1.12-2.5,2.5-2.5h2.5c1.38,0,2.5,1.12,2.5,2.5l0,0
		C17,15.88,15.88,17,14.5,17z"/>
</g>
</svg>
