<?xml version="1.0" encoding="utf-8"?>
<!-- Generator: Adobe Illustrator 23.0.2, SVG Export Plug-In . SVG Version: 6.00 Build 0)  -->
<svg version="1.1" id="Layer_1" xmlns="http://www.w3.org/2000/svg" xmlns:xlink="http://www.w3.org/1999/xlink" x="0px" y="0px"
	 viewBox="0 0 15.4 15.4" style="enable-background:new 0 0 15.4 15.4;" xml:space="preserve">
<style type="text/css">
	.st0{fill:#F4F4F4;}
</style>
<path class="st0" d="M15.1,1l-0.7-0.7c-0.4-0.4-1-0.4-1.4,0L7.7,5.6L2.4,0.3C2-0.1,1.4-0.1,1,0.3L0.3,1c-0.4,0.4-0.4,1,0,1.4
	l5.3,5.3L0.3,13c-0.4,0.4-0.4,1,0,1.4L1,15.1c0.4,0.4,1,0.4,1.4,0l5.3-5.3l5.3,5.3c0.4,0.4,1,0.4,1.4,0l0.7-0.7c0.4-0.4,0.4-1,0-1.4
	L9.8,7.7l5.3-5.3C15.5,2,15.5,1.4,15.1,1z"/>
</svg>
