<?xml version="1.0" encoding="utf-8"?>
<!-- Generator: Adobe Illustrator 23.0.2, SVG Export Plug-In . SVG Version: 6.00 Build 0)  -->
<svg version="1.1" id="Layer_1" xmlns="http://www.w3.org/2000/svg" xmlns:xlink="http://www.w3.org/1999/xlink" x="0px" y="0px"
	 viewBox="0 0 31.9 31.9" style="enable-background:new 0 0 31.9 31.9;" xml:space="preserve">
<style type="text/css">
	.st0{fill:#175BAA;}
</style>
<g transform="translate(-632.06 -8.061)">
	<path class="st0" d="M648,8.1c-8.8,0-15.9,7.1-15.9,15.9s7.1,15.9,15.9,15.9c8.8,0,15.9-7.1,15.9-15.9l0,0
		C663.9,15.2,656.8,8.1,648,8.1z M659,30.4c-2.9-0.9-4.7,2.1-6.5,3.3c-1.1,0.8-3.3,2-4.9,3c-6.9-0.2-12.3-5.8-12.4-12.7
		c0-0.3,0-0.6,0-0.9c0.8,1.3,1.9,2.7,2.9,3c1.9,0.5,4.7-2.4,5.5-1.3c0.8,1.1-0.3,0.9,0,2.4c0.3,1.5,3.1,0.9,4.1,2.9
		c1,2,2.9,1.2,1.1-2s0.9-5.7-0.7-6.3s-5.1-0.2-4.7-1.9s2-4.4,0.6-5.7c-0.5-0.6-0.8-1.4-0.6-2.3c3.3-1.2,6.9-1,10.1,0.6
		c-0.8,0.6-1.3,1.4-1.6,2.3c-0.3,1.8,1.8,3.3,2.7,4.8c0.9,1.5,0.8,4.3,2.4,5.1c1.1,0.4,2.2,0.8,3.3,1.1
		C660.4,27.5,659.8,29,659,30.4z"/>
</g>
</svg>
