<?xml version="1.0" encoding="utf-8"?>
<!-- Generator: Adobe Illustrator 23.0.1, SVG Export Plug-In . SVG Version: 6.00 Build 0)  -->
<svg version="1.1" id="Layer_1" xmlns="http://www.w3.org/2000/svg" xmlns:xlink="http://www.w3.org/1999/xlink" x="0px" y="0px"
	 viewBox="0 0 36 36" style="enable-background:new 0 0 36 36;" xml:space="preserve">
<path d="M33,0H3C1.3,0,0,1.3,0,3v30c0,1.7,1.3,3,3,3h30c1.7,0,3-1.3,3-3V3C36,1.3,34.7,0,33,0z M31,26.5c0,0.8-0.7,1.5-1.5,1.5h-23
	C5.7,28,5,27.3,5,26.5v-1C5,24.7,5.7,24,6.5,24h23c0.8,0,1.5,0.7,1.5,1.5V26.5z M31,18.5c0,0.8-0.7,1.5-1.5,1.5h-23
	C5.7,20,5,19.3,5,18.5v-1C5,16.7,5.7,16,6.5,16h23c0.8,0,1.5,0.7,1.5,1.5V18.5z M31,10.5c0,0.8-0.7,1.5-1.5,1.5h-23
	C5.7,12,5,11.3,5,10.5v-1C5,8.7,5.7,8,6.5,8h23C30.3,8,31,8.7,31,9.5V10.5z"/>
</svg>
