<?xml version="1.0" encoding="utf-8"?>
<!-- Generator: Adobe Illustrator 23.0.2, SVG Export Plug-In . SVG Version: 6.00 Build 0)  -->
<svg version="1.1" id="Layer_1" xmlns="http://www.w3.org/2000/svg" xmlns:xlink="http://www.w3.org/1999/xlink" x="0px" y="0px"
	 viewBox="0 0 21.1 22.8" style="enable-background:new 0 0 21.1 22.8;" xml:space="preserve">
<style type="text/css">
	.st0{fill:#FFFFFF;}
</style>
<g transform="translate(-637.476 -12.54)">
	<path class="st0" d="M638.7,25.2h3c0.7,0,1.2-0.5,1.2-1.2s-0.5-1.2-1.2-1.2h-3c-0.7,0-1.2,0.5-1.2,1.2S638,25.2,638.7,25.2
		L638.7,25.2z M638.7,17.7h10.1c0.7,0,1.2-0.5,1.2-1.2c0-0.7-0.5-1.2-1.2-1.2c0,0,0,0,0,0h-10.1c-0.7,0-1.2,0.5-1.2,1.2
		C637.5,17.1,638,17.7,638.7,17.7C638.7,17.7,638.7,17.7,638.7,17.7z M652.3,20.4c0.7,0,1.2-0.5,1.2-1.2v0v-1.5h3.9
		c0.7,0,1.2-0.5,1.2-1.2c0-0.7-0.5-1.2-1.2-1.2c0,0,0,0,0,0h-3.9v-1.5c0-0.7-0.5-1.2-1.2-1.2c-0.7,0-1.2,0.5-1.2,1.2l0,0v5.4
		C651.1,19.8,651.6,20.4,652.3,20.4L652.3,20.4L652.3,20.4z M657.4,22.8h-10.7V21c0-0.7-0.5-1.2-1.2-1.2c-0.7,0-1.2,0.5-1.2,1.2
		c0,0,0,0,0,0v5.4c0,0.7,0.5,1.2,1.2,1.2c0.7,0,1.2-0.5,1.2-1.2v-1.3h10.7c0.7,0,1.2-0.5,1.2-1.2S658,22.8,657.4,22.8L657.4,22.8z
		 M656.5,30.3h-5.6v-1.5c0-0.7-0.5-1.2-1.2-1.2s-1.2,0.5-1.2,1.2v5.4c0,0.7,0.5,1.2,1.2,1.2s1.2-0.5,1.2-1.2v-1.5h5.6
		c0.7,0,1.2-0.5,1.2-1.2C657.7,30.8,657.1,30.3,656.5,30.3L656.5,30.3z M645.8,30.3h-7.2c-0.7,0-1.2,0.5-1.2,1.2
		c0,0.7,0.5,1.2,1.2,1.2l0,0h7.2c0.7,0,1.2-0.5,1.2-1.2C647,30.8,646.5,30.3,645.8,30.3L645.8,30.3z"/>
</g>
</svg>
