{
  "entrypoint": "index.html",
  "shell": "src/components/irisx-app.js",

  "note":" ⚠ all page-level components (e.g. CCTV etc) need to be added to the fragments array below: ⚠ ",

  "fragments": [
    "src/components/irisx-login/irisx-login.js",
    "src/components/irisx-cctv/irisx-cctv.js",
    "src/components/irisx-dms/irisx-dms.js",
    "src/components/irisx-cad/irisx-cad.js"
  ],
  "sources": [
    "index.html",
    "index.css",
    "manifest.json",
    "favicon.ico",
    "apple-icon-precomposed.png",
    "apple-icon.png",

    "push-manifest.json",
    "service-worker.js",
      
    "src/**/*.js"
  ],
  "extraDependencies": [	
    "node_modules/@webcomponents/webcomponentsjs/*.js",
    "!node_modules/@webcomponents/webcomponentsjs/gulpfile.js",
    "node_modules/@webcomponents/webcomponentsjs/bundles/*.js",
    "node_modules/leaflet-geosearch/**",	
    "config/**/*",
    "img/**/*"
  ],
  "moduleResolution": "node",
  "npm": true,
  "lint":{
    "rules":["polymer-3"],
    "ignoreWarnings":["could-not-resolve-reference"]
  },
  "builds": [{
    "name": "static",
    "addServiceWorker": true,
    "addPushManifest": true,
    "js": {
      "minify":true,
      "compile":true,
      "transformModulesToAmd": true
    },
    "css": {	"minify": true	},
    "html": {	"minify": true	}
  }]
}
